Meow 4 the Mao - Week 9 Midterm Replacement
…
2. Verified users

The dataset contains details of whether the review was based on a verified purchase. From Amazon Community:

An “Amazon Verified Purchase” review means that we’ve verified that the person writing the review purchased the product from Amazon, and didn’t receive the product at a big discount. Reviews that are not marked “Amazon Verified Purchase” are valuable as well, but, either we cannot confirm that the product was purchased from Amazon, or that the customer paid a price that is available to most Amazon shoppers.

Table 1 shows the number of reviews based on verified and unverified purchases.

# A tibble: 497,577 × 4
   rating verified  year reviewerName     
    <dbl> <lgl>    <dbl> <chr>            
 1      5 TRUE      2015 Ambrosia075      
 2      4 FALSE     2015 travis           
 3      3 TRUE      2015 Vincent G. Mezera
 4      2 TRUE      2015 Grandma KR       
 5      5 TRUE      2014 jon              
 6      4 TRUE      2014 IBRAHIM ALBADI   
 7      1 FALSE     2014 Creation27       
 8      5 TRUE      2014 WhiteSkull       
 9      5 TRUE      2014 Travis B. Moore  
10      4 TRUE      2013 johnnyz3         
# … with 497,567 more rows
…
